[
  {
    "id": "2f4fa5b5-3f66-4901-8242-606a6b120d55",
    "data": [
      {
        "text": "Sorry",
        "userDefined": false
      }
    ],
    "isTemplate": false,
    "count": 0,
    "updated": 0
  },
  {
    "id": "ca72d0e3-2b28-4194-ac75-842d4f815266",
    "data": [
      {
        "text": "My bad",
        "userDefined": false
      }
    ],
    "isTemplate": false,
    "count": 0,
    "updated": 0
  },
  {
    "id": "3f2c2506-8c80-40f3-a59d-45f45ac929c4",
    "data": [
      {
        "text": "My apologies.",
        "userDefined": false
      }
    ],
    "isTemplate": false,
    "count": 0,
    "updated": 0
  },
  {
    "id": "dffc851e-f220-4cdf-9b5b-ea407a02af4e",
    "data": [
      {
        "text": "Sorry about that.",
        "userDefined": false
      }
    ],
    "isTemplate": false,
    "count": 0,
    "updated": 0
  }
]