{
  "id": "a4b8ddd7-d881-4094-bb11-3f2727f6a2d1",
  "name": "Expressed Fatigue",
  "auto": true,
  "contexts": [],
  "responses": [
    {
      "resetContexts": false,
      "affectedContexts": [],
      "parameters": [],
      "messages": [
        {
          "type": 0,
          "lang": "en",
          "condition": "",
          "speech": [
            "No problem! Let\u0027s just talk another time.",
            "That\u0027s okay, just come back sometime later. Bye for now!",
            "Maybe we can talk later. You should get some rest."
          ]
        }
      ],
      "defaultResponsePlatforms": {},
      "speech": []
    }
  ],
  "priority": 500000,
  "webhookUsed": false,
  "webhookForSlotFilling": false,
  "fallbackIntent": false,
  "events": [],
  "conditionalResponses": [],
  "condition": "",
  "conditionalFollowupEvents": []
}