[
  {
    "id": "81de8db4-8407-4df5-8061-5d70e63abc20",
    "data": [
      {
        "text": "Hey?",
        "userDefined": false
      }
    ],
    "isTemplate": false,
    "count": 0,
    "updated": 0
  },
  {
    "id": "4bd71f6f-22be-4721-bcd3-e7035ee1e98e",
    "data": [
      {
        "text": "Hello?",
        "userDefined": false
      }
    ],
    "isTemplate": false,
    "count": 0,
    "updated": 0
  },
  {
    "id": "8fea6063-b172-471a-8f72-b77743f1e4c9",
    "data": [
      {
        "text": "I am still here.",
        "userDefined": false
      }
    ],
    "isTemplate": false,
    "count": 0,
    "updated": 0
  },
  {
    "id": "1678c10d-aad3-41ea-ba59-a861aa33dc91",
    "data": [
      {
        "text": "I\u0027m waiting.",
        "userDefined": false
      }
    ],
    "isTemplate": false,
    "count": 0,
    "updated": 0
  },
  {
    "id": "75fa9767-6b66-434a-80f3-9a89916b547f",
    "data": [
      {
        "text": "Are you going to respond?",
        "userDefined": false
      }
    ],
    "isTemplate": false,
    "count": 0,
    "updated": 0
  }
]