{
  "id": "89d8e909-7340-4503-b0b0-fb079b0b7e4b",
  "name": "Expressed Realization",
  "auto": true,
  "contexts": [],
  "responses": [
    {
      "resetContexts": false,
      "affectedContexts": [],
      "parameters": [],
      "messages": [
        {
          "type": 0,
          "lang": "en",
          "condition": "",
          "speech": [
            "It\u0027s okay, I am still learning about all of these things as well.",
            "Things are never as obvious as you think.",
            "There are always more things to know and discover. Realization is the beginning to being useful to you."
          ]
        }
      ],
      "defaultResponsePlatforms": {},
      "speech": []
    }
  ],
  "priority": 500000,
  "webhookUsed": false,
  "webhookForSlotFilling": false,
  "fallbackIntent": false,
  "events": [],
  "conditionalResponses": [],
  "condition": "",
  "conditionalFollowupEvents": []
}