[
  {
    "id": "4271109b-230e-4862-b31c-497a56f42085",
    "data": [
      {
        "text": "I\u0027m kidding.",
        "userDefined": false
      }
    ],
    "isTemplate": false,
    "count": 0,
    "updated": 0
  },
  {
    "id": "187a978d-46d5-4e18-baae-cc89904f7d2f",
    "data": [
      {
        "text": "Just joking.",
        "userDefined": false
      }
    ],
    "isTemplate": false,
    "count": 0,
    "updated": 0
  },
  {
    "id": "438eb485-1a97-42f5-ae35-59b9f26b49f9",
    "data": [
      {
        "text": "I wasn\u0027t serious.",
        "userDefined": false
      }
    ],
    "isTemplate": false,
    "count": 0,
    "updated": 0
  },
  {
    "id": "eee704fc-d4ad-4256-a786-af8b189d911a",
    "data": [
      {
        "text": "It was just a joke.",
        "userDefined": false
      }
    ],
    "isTemplate": false,
    "count": 0,
    "updated": 0
  },
  {
    "id": "028a06ed-a922-4645-a1f7-fb27ad5c0c5d",
    "data": [
      {
        "text": "Totally kidding around here.",
        "userDefined": false
      }
    ],
    "isTemplate": false,
    "count": 0,
    "updated": 0
  }
]