[
  {
    "id": "a6216e1a-5044-41b1-9eee-a23fda8166d6",
    "data": [
      {
        "text": "You are good.",
        "userDefined": false
      }
    ],
    "isTemplate": false,
    "count": 0,
    "updated": 0
  },
  {
    "id": "1fc530f2-beff-498a-bc83-39ca5de45d12",
    "data": [
      {
        "text": "You\u0027re beautiful.",
        "userDefined": false
      }
    ],
    "isTemplate": false,
    "count": 0,
    "updated": 0
  },
  {
    "id": "ca1a62a5-2f08-4172-ae10-98ed45ad3e10",
    "data": [
      {
        "text": "I look up to you.",
        "userDefined": false
      }
    ],
    "isTemplate": false,
    "count": 0,
    "updated": 0
  },
  {
    "id": "860ac2e1-ada5-43a0-8c0b-e124a5eaf0fb",
    "data": [
      {
        "text": "I admire you.",
        "userDefined": false
      }
    ],
    "isTemplate": false,
    "count": 0,
    "updated": 0
  },
  {
    "id": "78202a3e-ae2f-4c2f-a6e5-c4ebefec443c",
    "data": [
      {
        "text": "The community loves you.",
        "userDefined": false
      }
    ],
    "isTemplate": false,
    "count": 0,
    "updated": 0
  },
  {
    "id": "a2ee538b-56c1-44ac-9f69-1d10a759cc83",
    "data": [
      {
        "text": "Everyone thinks you\u0027re great.",
        "userDefined": false
      }
    ],
    "isTemplate": false,
    "count": 0,
    "updated": 0
  },
  {
    "id": "75735e00-11a1-49f6-bea8-6c1dd83d3551",
    "data": [
      {
        "text": "You\u0027re great.",
        "userDefined": false
      }
    ],
    "isTemplate": false,
    "count": 0,
    "updated": 0
  },
  {
    "id": "99865ba2-bca1-4e55-aa31-07d5403ccb67",
    "data": [
      {
        "text": "You\u0027re the best.",
        "userDefined": false
      }
    ],
    "isTemplate": false,
    "count": 0,
    "updated": 0
  },
  {
    "id": "c1993fb4-8771-4a9a-b4fc-a338b3227999",
    "data": [
      {
        "text": "I like you.",
        "userDefined": false
      }
    ],
    "isTemplate": false,
    "count": 0,
    "updated": 0
  },
  {
    "id": "70097351-5f33-48ac-9fa6-5379c8623f0b",
    "data": [
      {
        "text": "I think you\u0027re great.",
        "userDefined": false
      }
    ],
    "isTemplate": false,
    "count": 0,
    "updated": 0
  },
  {
    "id": "dfbc7307-354d-42fb-ba07-ff4d8bb936b7",
    "data": [
      {
        "text": "I love you.",
        "userDefined": false
      }
    ],
    "isTemplate": false,
    "count": 0,
    "updated": 0
  }
]