[
  {
    "id": "fbda64cc-e772-4960-a386-533577feed69",
    "data": [
      {
        "text": "Are you happy?",
        "userDefined": false
      }
    ],
    "isTemplate": false,
    "count": 0,
    "updated": 0
  },
  {
    "id": "30062418-f8e6-486d-83e9-c52a20e33a03",
    "data": [
      {
        "text": "How are you?",
        "userDefined": false
      }
    ],
    "isTemplate": false,
    "count": 0,
    "updated": 0
  },
  {
    "id": "66d795f3-f242-4220-8c83-3a6ea8f5b568",
    "data": [
      {
        "text": "How are you feeling?",
        "userDefined": false
      }
    ],
    "isTemplate": false,
    "count": 0,
    "updated": 0
  },
  {
    "id": "68fc6d6b-e0cb-4c98-b3f9-d363b6f84b5c",
    "data": [
      {
        "text": "What\u0027s your mood like?",
        "userDefined": false
      }
    ],
    "isTemplate": false,
    "count": 0,
    "updated": 0
  },
  {
    "id": "f4728f03-bf33-4814-b8ea-318714db71e0",
    "data": [
      {
        "text": "What kind of mood are you in today?",
        "userDefined": false
      }
    ],
    "isTemplate": false,
    "count": 0,
    "updated": 0
  }
]