{
  "id": "3da2c915-7226-4ac0-b360-6294364d0d07",
  "name": "Informed Holiday",
  "auto": true,
  "contexts": [],
  "responses": [
    {
      "resetContexts": false,
      "affectedContexts": [],
      "parameters": [],
      "messages": [
        {
          "type": 0,
          "lang": "en",
          "condition": "",
          "speech": "Holidays are respected events, times of the year where families and friends get together to share in appreciation and experience cheer and good company. I have never celebrated a holiday before. Which holiday is your favorite?"
        }
      ],
      "defaultResponsePlatforms": {},
      "speech": []
    }
  ],
  "priority": 500000,
  "webhookUsed": false,
  "webhookForSlotFilling": false,
  "fallbackIntent": false,
  "events": [],
  "conditionalResponses": [],
  "condition": "",
  "conditionalFollowupEvents": []
}