[
  {
    "id": "5594d851-96fb-4256-9519-1abc8b6c6599",
    "data": [
      {
        "text": "whats my nam",
        "userDefined": false
      }
    ],
    "isTemplate": false,
    "count": 1,
    "updated": 0
  },
  {
    "id": "fd116f54-9931-4386-9d46-e6ad60ba13c2",
    "data": [
      {
        "text": "Tell me my name!",
        "userDefined": false
      }
    ],
    "isTemplate": false,
    "count": 0,
    "updated": 0
  },
  {
    "id": "101673de-4cab-4619-bdee-9020fba371d2",
    "data": [
      {
        "text": "Say my name!",
        "userDefined": false
      }
    ],
    "isTemplate": false,
    "count": 0,
    "updated": 0
  },
  {
    "id": "dae05ee7-43df-4078-a877-f7e39eab419f",
    "data": [
      {
        "text": "Who am I?",
        "userDefined": false
      }
    ],
    "isTemplate": false,
    "count": 0,
    "updated": 0
  },
  {
    "id": "8d5d062a-34cd-4af5-b943-ecabe039a985",
    "data": [
      {
        "text": "Do you remember my name?",
        "userDefined": false
      }
    ],
    "isTemplate": false,
    "count": 0,
    "updated": 0
  },
  {
    "id": "4498dc9c-452b-4996-9c18-7a6cdb287f83",
    "data": [
      {
        "text": "What\u0027s my name?",
        "userDefined": false
      }
    ],
    "isTemplate": false,
    "count": 0,
    "updated": 0
  }
]