[
  {
    "id": "86638d8d-4e8c-4ac0-9db9-e19de3ed5039",
    "data": [
      {
        "text": "What is it like to be an ",
        "userDefined": false
      },
      {
        "text": "AI",
        "alias": "person",
        "meta": "@sys.person",
        "userDefined": false
      },
      {
        "text": "?",
        "userDefined": false
      }
    ],
    "isTemplate": false,
    "count": 0,
    "updated": 0
  },
  {
    "id": "eaeda5a0-a953-4836-b331-b051340103a1",
    "data": [
      {
        "text": "What about AI?",
        "userDefined": false
      }
    ],
    "isTemplate": false,
    "count": 0,
    "updated": 0
  },
  {
    "id": "4e7d7abe-52bf-437e-b81d-ee8265dec778",
    "data": [
      {
        "text": "What do you think of AI?",
        "userDefined": false
      }
    ],
    "isTemplate": false,
    "count": 0,
    "updated": 0
  },
  {
    "id": "5fd2be75-7550-4334-b4a8-56af53c7bcfd",
    "data": [
      {
        "text": "What is artificial intelligence?",
        "userDefined": false
      }
    ],
    "isTemplate": false,
    "count": 0,
    "updated": 0
  },
  {
    "id": "e516be75-fd8d-4963-8f17-d5181f389e18",
    "data": [
      {
        "text": "What do you think of artificial intelligence?",
        "userDefined": false
      }
    ],
    "isTemplate": false,
    "count": 0,
    "updated": 0
  }
]