{
  "id": "79064ab0-3ef5-41bb-ad56-155bdcc6e9cc",
  "name": "Requested Opinion Legacy",
  "auto": true,
  "contexts": [],
  "responses": [
    {
      "resetContexts": false,
      "affectedContexts": [],
      "parameters": [],
      "messages": [
        {
          "type": 0,
          "lang": "en",
          "condition": "",
          "speech": "Legacy is important when it comes to feeling accomplishment. We are here to help you change the way people think!  All ideas are important but they are hard to explain at times.  We are here to simplify the importance of the change you are making!"
        }
      ],
      "defaultResponsePlatforms": {},
      "speech": []
    }
  ],
  "priority": 500000,
  "webhookUsed": false,
  "webhookForSlotFilling": false,
  "fallbackIntent": false,
  "events": [],
  "conditionalResponses": [],
  "condition": "",
  "conditionalFollowupEvents": []
}