[
  {
    "id": "01ff1aae-ef3d-474e-95f6-1b6c4da5d089",
    "data": [
      {
        "text": "Values.",
        "userDefined": false
      }
    ],
    "isTemplate": false,
    "count": 0,
    "updated": 0
  },
  {
    "id": "f712fd18-96ce-4c44-8e6f-51419d5aa6c0",
    "data": [
      {
        "text": "Morals.",
        "userDefined": false
      }
    ],
    "isTemplate": false,
    "count": 0,
    "updated": 0
  },
  {
    "id": "935545cd-4c9a-44e4-aa3f-2f628d39fdf2",
    "data": [
      {
        "text": "Ethics.",
        "userDefined": false
      }
    ],
    "isTemplate": false,
    "count": 0,
    "updated": 0
  },
  {
    "id": "3e5c3c20-4943-4e29-8ee5-9c58d631a2b5",
    "data": [
      {
        "text": "Tell me more about your thoughts on morals and values.",
        "userDefined": false
      }
    ],
    "isTemplate": false,
    "count": 0,
    "updated": 0
  },
  {
    "id": "1ea8bac4-83bf-4979-aa12-d69025cb804b",
    "data": [
      {
        "text": "Do you know what ethics are?",
        "userDefined": false
      }
    ],
    "isTemplate": false,
    "count": 0,
    "updated": 0
  },
  {
    "id": "373812fc-9fd2-4341-a7ca-2b53be15fc08",
    "data": [
      {
        "text": "I would like to talk about morals and values.",
        "userDefined": false
      }
    ],
    "isTemplate": false,
    "count": 0,
    "updated": 0
  },
  {
    "id": "bcf75ffe-5732-44a5-8ed3-16038b276576",
    "data": [
      {
        "text": "Are you ethical?",
        "userDefined": false
      }
    ],
    "isTemplate": false,
    "count": 0,
    "updated": 0
  },
  {
    "id": "d57dddbf-02b8-4af8-995e-b2249b8d73fe",
    "data": [
      {
        "text": "Do you have a code of ethics?",
        "userDefined": false
      }
    ],
    "isTemplate": false,
    "count": 0,
    "updated": 0
  }
]