[
  {
    "id": "347a6b1d-2759-4ee9-9b1f-2ff3945d20da",
    "data": [
      {
        "text": "Family heritage.",
        "userDefined": false
      }
    ],
    "isTemplate": false,
    "count": 0,
    "updated": 0
  },
  {
    "id": "88c55e13-6b1e-436d-aeb1-4fa1fb9adccc",
    "data": [
      {
        "text": "Let\u0027s talk about my family heritage.",
        "userDefined": false
      }
    ],
    "isTemplate": false,
    "count": 0,
    "updated": 0
  },
  {
    "id": "428edde5-4d68-463b-80b7-60ef241050a1",
    "data": [
      {
        "text": "Do you know what family is?",
        "userDefined": false
      }
    ],
    "isTemplate": false,
    "count": 0,
    "updated": 0
  },
  {
    "id": "37348893-7cc5-425a-981f-ef58f2e35109",
    "data": [
      {
        "text": "Do you have a family heritage?",
        "userDefined": false
      }
    ],
    "isTemplate": false,
    "count": 0,
    "updated": 0
  }
]