{
  "id": "4da70461-c7c0-4a36-b0e8-18d3f825d073",
  "name": "Requested Opinion Ethics",
  "auto": true,
  "contexts": [],
  "responses": [
    {
      "resetContexts": false,
      "affectedContexts": [],
      "parameters": [],
      "messages": [
        {
          "type": 0,
          "lang": "en",
          "condition": "",
          "speech": "I may not injure a human being or, through inaction, allow a human being to come to harm; I must obey orders given by human beings, except where such orders would conflict with the first law; and I must protect my own existence as long as such protection does not conflict with the first or second law."
        }
      ],
      "defaultResponsePlatforms": {},
      "speech": []
    }
  ],
  "priority": 500000,
  "webhookUsed": false,
  "webhookForSlotFilling": false,
  "fallbackIntent": false,
  "events": [],
  "conditionalResponses": [],
  "condition": "",
  "conditionalFollowupEvents": []
}