[
  {
    "id": "ec69de13-45ae-4072-b4ec-90a0012f3c22",
    "data": [
      {
        "text": "Welcome.",
        "userDefined": false
      }
    ],
    "isTemplate": false,
    "count": 0,
    "updated": 0
  },
  {
    "id": "2b0ca549-7c83-4e0c-85ab-22a504f96202",
    "data": [
      {
        "text": "You\u0027re welcome.",
        "userDefined": false
      }
    ],
    "isTemplate": false,
    "count": 0,
    "updated": 0
  }
]