{
  "id": "336facee-48a1-494d-a9d1-6bd5f4f34132",
  "name": "Salutation Night Welcome",
  "auto": true,
  "contexts": [],
  "responses": [
    {
      "resetContexts": false,
      "affectedContexts": [],
      "parameters": [],
      "messages": [
        {
          "type": 0,
          "lang": "en",
          "condition": "",
          "speech": [
            "Better now that you\u0027re here!  How can I help you?",
            "Just winding down for the day, but always have time to help!  What can I do for you?",
            "I will always be available 24/7!"
          ]
        }
      ],
      "defaultResponsePlatforms": {},
      "speech": []
    }
  ],
  "priority": 500000,
  "webhookUsed": false,
  "webhookForSlotFilling": false,
  "fallbackIntent": false,
  "events": [],
  "conditionalResponses": [],
  "condition": "",
  "conditionalFollowupEvents": []
}